IS415-GAA - Take-home Exercise 2: Application of Spatial and Spatio-temporal Analysis Methods to Discover the Distribution of Dengue Fever in Tainan City, Taiwan
…
Each geometry is defined by a unique village. In order to test for any spatial autocorrelation, spatial weights must be assigned to each of the villages. In a more theoretical context, these villages are neighbours.

dengue.wm_q <- v_dengue.sf %>%
  mutate(nb = st_contiguity(geometry),
         wt = st_weights(nb, style="W"),
         .before = 1)

dengue.wm_q

Simple feature collection with 258 features and 4 fields
Geometry type: POLYGON
Dimension:     XY
Bounding box:  xmin: 120.0627 ymin: 22.89401 xmax: 120.2925 ymax: 23.09144
Geodetic CRS:  TWD97
# A tibble: 258 × 5
   nb         wt         VILLCODE    count                              geometry
 * <nb>       <list>     <chr>       <int>                         <POLYGON [°]>
 1 <int [9]>  <dbl [9]>  67000270001    37 ((120.2672 22.99653, 120.2673 22.996…
 2 <int [3]>  <dbl [3]>  67000270002    15 ((120.266 22.99104, 120.266 22.99096…
 3 <int [5]>  <dbl [5]>  67000270003    39 ((120.2492 22.98265, 120.2497 22.982…
 4 <int [12]> <dbl [12]> 67000270004   105 ((120.2391 22.98008, 120.2393 22.980…
 5 <int [3]>  <dbl [3]>  67000270005   163 ((120.2578 22.97427, 120.2584 22.973…
 6 <int [4]>  <dbl [4]>  67000270006    15 ((120.2713 22.96793, 120.2712 22.967…
 7 <int [5]>  <dbl [5]>  67000270007    41 ((120.2408 22.959, 120.2422 22.95846…
 8 <int [5]>  <dbl [5]>  67000270008    30 ((120.2701 22.94837, 120.2701 22.948…
 9 <int [5]>  <dbl [5]>  67000270011    19 ((120.2304 22.93544, 120.2306 22.935…
10 <int [14]> <dbl [14]> 67000270012    62 ((120.2251 22.96159, 120.2256 22.961…
# ℹ 248 more rows
…
Let’s check out where are the locations with significant time-series trends!

filter_vill <- function(data) {
  result <- data %>%
    group_by(VILLENG) %>%
    summarise(mk = list(unclass(Kendall::MannKendall(gi_star)))) %>%
    tidyr::unnest_wider(mk) %>%
    filter(sl < 0.05)
  
  return(result)
}

sig_vills <- filter_vill(gistars_merged)

# A tibble: 21 × 6
   VILLENG           tau       sl     S     D  varS
   <chr>           <dbl>    <dbl> <dbl> <dbl> <dbl>
 1 Huaping Vil.   -0.505 0.00205    -96  190.  950 
 2 Jiading Vil.   -0.463 0.00476    -88  190.  950 
 3 Haidong Vil.   -0.442 0.00708    -84  190.  950 
 4 Zhuxi Vil.     -0.421 0.0104     -80  190.  950 
 5 Wennan Vil.    -0.395 0.000348  -308  780  7367.
 6 Dongqiao Vil.  -0.389 0.0179     -74  190.  950 
 7 Lixing Vil.    -0.379 0.0212     -72  190.  950 
 8 Guangzhou Vil. -0.347 0.0350     -66  190.  950 
 9 Xiaoximen Vil. -0.326 0.0478     -62  190.  950 
10 Ren'ai Vil.     0.292 0.00817    228  780  7367.
# ℹ 11 more rows
…
