IS415-GAA - Take-home Exercise 1: Application of Spatial Point Patterns Analysis – Geographical Distribution of Grab hailing services (Singapore)
…
# |eval: false
#write_rds(origin_df,"data/aspatial/rds/origin_df.rds")
#write_rds(dest_df,"data/aspatial/rds/dest_df.rds")

origin_df <- read_rds("data/aspatial/rds/origin_df.rds")
dest_df <- read_rds("data/aspatial/rds/dest_df.rds")

Further Observation

Inspect the fields in origin_df and dest_df.

list(origin_df)

[[1]]
# A tibble: 28,000 × 12
# Groups:   trj_id [28,000]
   trj_id driving_mode osname  pingtimestamp       rawlat rawlng  speed bearing
   <chr>  <chr>        <chr>   <dttm>               <dbl>  <dbl>  <dbl>   <int>
 1 70895  car          android 2019-04-08 00:09:26   1.38   104.  9.95      111
 2 21926  car          android 2019-04-08 00:09:48   1.29   104. 11.0        75
 3 47498  car          ios     2019-04-08 00:09:50   1.38   104. 18.6       307
 4 18103  car          android 2019-04-08 00:09:55   1.45   104.  0.404     159
 5 41322  car          android 2019-04-08 00:09:57   1.28   104. 17.9       232
 6 64813  car          ios     2019-04-08 00:10:03   1.31   104. 17.1       106
 7 81518  car          ios     2019-04-08 00:10:14   1.31   104.  6.24      213
 8 66542  car          android 2019-04-08 00:11:17   1.36   104.  9.11      179
 9 25201  car          ios     2019-04-08 00:12:05   1.37   104. 12.0       211
10 82401  car          android 2019-04-08 00:12:11   1.30   104. 10.6       107
# ℹ 27,990 more rows
# ℹ 4 more variables: accuracy <dbl>, weekday <ord>, start_hr <fct>, day <fct>

list(dest_df)

[[1]]
# A tibble: 28,000 × 12
# Groups:   trj_id [28,000]
   trj_id driving_mode osname  pingtimestamp       rawlat rawlng  speed bearing
   <chr>  <chr>        <chr>   <dttm>               <dbl>  <dbl>  <dbl>   <int>
 1 81574  car          ios     2019-04-21 23:56:49   1.34   104. 15.3       103
 2 54687  car          android 2019-04-21 23:56:46   1.44   104.  8.15      299
 3 17190  car          android 2019-04-21 23:56:36   1.34   104. 12.4       202
 4 13793  car          android 2019-04-21 23:56:30   1.32   104.  6.47      170
 5 39014  car          ios     2019-04-21 23:56:27   1.33   104.  3.59      169
 6 41170  car          ios     2019-04-21 23:56:13   1.32   104. 13.1        71
 7 64519  car          ios     2019-04-21 23:55:49   1.43   104. 14.3       239
 8 70461  car          ios     2019-04-21 23:55:32   1.29   104.  0.970      51
 9 41154  car          ios     2019-04-21 23:55:10   1.32   104. 10.8       118
10 65488  car          ios     2019-04-21 23:54:47   1.38   104.  0         244
# ℹ 27,990 more rows
# ℹ 4 more variables: accuracy <dbl>, weekday <ord>, end_hr <fct>, day <fct>
…
